master_dma.sim/sim_1/behav/xsim/simulate.log
Vivado Simulator 2018.3
Time resolution is 1 ps
Starting DMA controller simulation
Time=0, ARVALID=x, ARREADY=0, RVALID=0, RREADY=x, AWVALID=x, AWREADY=0, WVALID=x, WREADY=0, BVALID=0, BREADY=x, done=x
Time=5000, ARVALID=0, ARREADY=0, RVALID=0, RREADY=0, AWVALID=0, AWREADY=0, WVALID=0, WREADY=0, BVALID=0, BREADY=0, done=0
BEFORE DMA TRANSFER:
Memory contents from 0x00001000:
  0x00001000: 0xaabbccdd
  0x00001004: 0x11223344
  0x00001008: 0x55667788
  0x0000100c: 0x99aabbcc
Memory contents from 0x00002000:
  0x00002000: 0x00000000
  0x00002004: 0x00000000
  0x00002008: 0x00000000
  0x0000200c: 0x00000000
INFO: Starting DMA transfer from 0x00001000 to 0x00002000, length= 4
Time=65000, ARVALID=1, ARREADY=0, RVALID=0, RREADY=0, AWVALID=0, AWREADY=0, WVALID=0, WREADY=0, BVALID=0, BREADY=0, done=0
Time=76000, ARVALID=1, ARREADY=1, RVALID=0, RREADY=0, AWVALID=0, AWREADY=0, WVALID=0, WREADY=0, BVALID=0, BREADY=0, done=0
Time=85000, ARVALID=0, ARREADY=1, RVALID=0, RREADY=1, AWVALID=0, AWREADY=0, WVALID=0, WREADY=0, BVALID=0, BREADY=0, done=0
Time=86000, ARVALID=0, ARREADY=0, RVALID=0, RREADY=1, AWVALID=0, AWREADY=0, WVALID=0, WREADY=0, BVALID=0, BREADY=0, done=0
Time=96000, ARVALID=0, ARREADY=0, RVALID=1, RREADY=1, AWVALID=0, AWREADY=0, WVALID=0, WREADY=0, BVALID=0, BREADY=0, done=0
Time=105000, ARVALID=0, ARREADY=0, RVALID=1, RREADY=0, AWVALID=0, AWREADY=0, WVALID=0, WREADY=0, BVALID=0, BREADY=0, done=0
Time=115000, ARVALID=1, ARREADY=0, RVALID=1, RREADY=0, AWVALID=0, AWREADY=0, WVALID=0, WREADY=0, BVALID=0, BREADY=0, done=0
Time=116000, ARVALID=1, ARREADY=0, RVALID=0, RREADY=0, AWVALID=0, AWREADY=0, WVALID=0, WREADY=0, BVALID=0, BREADY=0, done=0
Time=125000, ARVALID=1, ARREADY=0, RVALID=0, RREADY=0, AWVALID=1, AWREADY=0, WVALID=0, WREADY=0, BVALID=0, BREADY=0, done=0
Time=126000, ARVALID=1, ARREADY=1, RVALID=0, RREADY=0, AWVALID=1, AWREADY=0, WVALID=0, WREADY=0, BVALID=0, BREADY=0, done=0
Time=135000, ARVALID=0, ARREADY=1, RVALID=0, RREADY=1, AWVALID=1, AWREADY=0, WVALID=0, WREADY=0, BVALID=0, BREADY=0, done=0
Time=136000, ARVALID=0, ARREADY=0, RVALID=0, RREADY=1, AWVALID=1, AWREADY=1, WVALID=0, WREADY=0, BVALID=0, BREADY=0, done=0
Time=145000, ARVALID=0, ARREADY=0, RVALID=0, RREADY=1, AWVALID=0, AWREADY=1, WVALID=0, WREADY=0, BVALID=0, BREADY=0, done=0
Time=146000, ARVALID=0, ARREADY=0, RVALID=1, RREADY=1, AWVALID=0, AWREADY=0, WVALID=0, WREADY=0, BVALID=0, BREADY=0, done=0
Time=155000, ARVALID=0, ARREADY=0, RVALID=1, RREADY=0, AWVALID=0, AWREADY=0, WVALID=1, WREADY=0, BVALID=0, BREADY=0, done=0
Time=165000, ARVALID=1, ARREADY=0, RVALID=1, RREADY=0, AWVALID=0, AWREADY=0, WVALID=1, WREADY=0, BVALID=0, BREADY=0, done=0
INFO: Writing 0xaabbccdd to address 0x00002000
Time=166000, ARVALID=1, ARREADY=0, RVALID=0, RREADY=0, AWVALID=0, AWREADY=0, WVALID=1, WREADY=1, BVALID=0, BREADY=0, done=0
Time=175000, ARVALID=1, ARREADY=0, RVALID=0, RREADY=0, AWVALID=0, AWREADY=0, WVALID=0, WREADY=1, BVALID=0, BREADY=1, done=0
Time=176000, ARVALID=1, ARREADY=1, RVALID=0, RREADY=0, AWVALID=0, AWREADY=0, WVALID=0, WREADY=0, BVALID=0, BREADY=1, done=0
Time=185000, ARVALID=0, ARREADY=1, RVALID=0, RREADY=1, AWVALID=0, AWREADY=0, WVALID=0, WREADY=0, BVALID=0, BREADY=1, done=0
Time=186000, ARVALID=0, ARREADY=0, RVALID=0, RREADY=1, AWVALID=0, AWREADY=0, WVALID=0, WREADY=0, BVALID=1, BREADY=1, done=0
Time=195000, ARVALID=0, ARREADY=0, RVALID=0, RREADY=1, AWVALID=0, AWREADY=0, WVALID=0, WREADY=0, BVALID=1, BREADY=0, done=0
Time=196000, ARVALID=0, ARREADY=0, RVALID=1, RREADY=1, AWVALID=0, AWREADY=0, WVALID=0, WREADY=0, BVALID=1, BREADY=0, done=0
Time=205000, ARVALID=0, ARREADY=0, RVALID=1, RREADY=0, AWVALID=1, AWREADY=0, WVALID=0, WREADY=0, BVALID=1, BREADY=0, done=0
Time=206000, ARVALID=0, ARREADY=0, RVALID=1, RREADY=0, AWVALID=1, AWREADY=0, WVALID=0, WREADY=0, BVALID=0, BREADY=0, done=0
Time=215000, ARVALID=1, ARREADY=0, RVALID=1, RREADY=0, AWVALID=1, AWREADY=0, WVALID=0, WREADY=0, BVALID=0, BREADY=0, done=0
ERROR: Expected write address 0x0000200c but got 0x00002004
Time=216000, ARVALID=1, ARREADY=0, RVALID=0, RREADY=0, AWVALID=1, AWREADY=1, WVALID=0, WREADY=0, BVALID=0, BREADY=0, done=0
Time=225000, ARVALID=1, ARREADY=0, RVALID=0, RREADY=0, AWVALID=0, AWREADY=1, WVALID=0, WREADY=0, BVALID=0, BREADY=0, done=0
Time=226000, ARVALID=1, ARREADY=0, RVALID=0, RREADY=0, AWVALID=0, AWREADY=0, WVALID=0, WREADY=0, BVALID=0, BREADY=0, done=0
Time=235000, ARVALID=1, ARREADY=0, RVALID=0, RREADY=0, AWVALID=0, AWREADY=0, WVALID=1, WREADY=0, BVALID=0, BREADY=0, done=0
INFO: Writing 0x11223344 to address 0x0000200c
Time=246000, ARVALID=1, ARREADY=0, RVALID=0, RREADY=0, AWVALID=0, AWREADY=0, WVALID=1, WREADY=1, BVALID=0, BREADY=0, done=0
Time=255000, ARVALID=1, ARREADY=0, RVALID=0, RREADY=0, AWVALID=0, AWREADY=0, WVALID=0, WREADY=1, BVALID=0, BREADY=1, done=0
Time=256000, ARVALID=1, ARREADY=0, RVALID=0, RREADY=0, AWVALID=0, AWREADY=0, WVALID=0, WREADY=0, BVALID=0, BREADY=1, done=0
Time=266000, ARVALID=1, ARREADY=0, RVALID=0, RREADY=0, AWVALID=0, AWREADY=0, WVALID=0, WREADY=0, BVALID=1, BREADY=1, done=0
Time=275000, ARVALID=1, ARREADY=0, RVALID=0, RREADY=0, AWVALID=0, AWREADY=0, WVALID=0, WREADY=0, BVALID=1, BREADY=0, done=0
Time=285000, ARVALID=1, ARREADY=0, RVALID=0, RREADY=0, AWVALID=1, AWREADY=0, WVALID=0, WREADY=0, BVALID=1, BREADY=0, done=0
Time=286000, ARVALID=1, ARREADY=0, RVALID=0, RREADY=0, AWVALID=1, AWREADY=0, WVALID=0, WREADY=0, BVALID=0, BREADY=0, done=0
